[
    {
        "airmap_no": 1,
        "airmap_name": "王大明",
        "airmap_desc": "",
        "airmap_latlng_n": 25.02583,
        "airmap_latlng_e": 121.53812
    },
    {
        "airmap_no": 2,
        "airmap_name": "李強",
        "airmap_desc": "",
        "airmap_latlng_n": 25.04442,
        "airmap_latlng_e": 121.52574
    }
]