{
    "project_no": 1,
    "project_name": "造型要素及其比例研究",
    "project_startdate": "2017/1/10",
    "project_enddate": "2017/3/1",
    "project_status": 20,
    "project_type": 20,
    "project_hours": 0,
    "project_intro": "",
    "project_prestudy": "",
    "project_material": "",
    "project_tags": []
}