[
    {
        "project_no": 1,
        "project_name": "植物型態研究1",
        "project_status": 10,
        "project_type": 10,
        "project_startdate": "2017/12/1",
        "project_enddate": "2017/12/31"
    },
    {
        "project_no": 2,
        "project_name": "植物型態研究2",
        "project_status": 10,
        "project_type": 10,
        "project_startdate": "2018/1/1",
        "project_enddate": "2018/3/31"
    },
    {
        "project_no": 3,
        "project_name": "教師自建專題1",
        "project_status": 10,
        "project_type": 20,
        "project_startdate": "",
        "project_enddate": ""
    },
    {
        "project_no": 4,
        "project_name": "替大師做減法",
        "project_status": 20,
        "project_type": 10,
        "project_startdate": "2017/1/1",
        "project_enddate": "2017/6/30"
    },
    {
        "project_no": 5,
        "project_name": "我的畫",
        "project_status": 30,
        "project_type": 10,
        "project_startdate": "2016/6/1",
        "project_enddate": "2016/7/31"
    },
    {
        "project_no": 6,
        "project_name": "學生自建專題1",
        "project_status": 10,
        "project_type": 30,
        "project_startdate": "",
        "project_enddate": ""
    },
    {
        "project_no": 7,
        "project_name": "學生自建專題2",
        "project_status": 10,
        "project_type": 30,
        "project_startdate": "",
        "project_enddate": ""
    }
]